<?xml version="1.0" encoding="UTF-8"?>
<svg width="106px" height="18px" viewBox="0 0 106 18" version="1.1" xmlns="http://www.w3.org/2000/svg" xmlns:xlink="http://www.w3.org/1999/xlink">
    <!-- Generator: Sketch 45 (43475) - http://www.bohemiancoding.com/sketch -->
    <title>neteller</title>
    <desc>Created with Sketch.</desc>
    <defs></defs>
    <g id="Page-1" stroke="none" stroke-width="1" fill="none" fill-rule="evenodd">
        <g id="Desktop-(cartoon)" transform="translate(-730.000000, -3386.000000)" fill="#344846">
            <g id="logos" transform="translate(174.000000, 3381.000000)">
                <g id="pay-methods">
                    <g id="neteller" transform="translate(556.000000, 5.000000)">
                        <path d="M103.493407,14.8943282 C103.404803,14.9428816 103.311656,14.9660023 103.209421,14.9775626 C102.986775,14.9983713 102.759586,14.9868109 102.534669,15.0168678 L102.477872,15.0168678 C102.339287,15.0168678 102.34383,15.0122437 102.332471,14.8735196 C102.314296,14.6885541 102.332471,14.5035887 102.300664,14.3139991 C102.275674,14.1429061 102.296121,14.1359699 102.477872,14.1267216 C102.68007,14.1174734 102.88454,14.1267216 103.086739,14.0920406 C103.198061,14.0735441 103.309384,14.0920406 103.416163,14.1244096 C103.59337,14.172963 103.718324,14.3186233 103.727412,14.4989646 C103.72514,14.6723697 103.652439,14.8087817 103.493407,14.8943282 L103.493407,14.8943282 Z M99.5266856,5.61831149 C99.5448608,5.10272033 99.5153262,4.59868952 99.4040035,4.09234663 C99.2586025,3.42878312 98.9655286,2.83920579 98.5111504,2.32823877 C97.9613529,1.70166835 97.270698,1.29474438 96.5073427,0.994175547 C95.7030934,0.679734303 94.8670375,0.510953341 94.0150785,0.418470622 C93.7651705,0.390725806 93.5129906,0.367605127 93.2653545,0.337548243 C93.1540318,0.328299971 93.0381654,0.374541331 92.9336584,0.312115495 L85.5023035,0.312115495 C85.3818933,0.975679003 85.2592112,1.63693044 85.138801,2.30280602 C84.8411833,3.95824669 84.5390218,5.60906322 84.2414041,7.26450389 C83.9755928,8.73729119 83.7052378,10.2031423 83.4371547,11.6736175 C83.3258321,12.3001879 83.2099656,12.9290704 83.1009149,13.5533288 C83.0668365,13.7429183 83.0645646,13.7475425 82.8828134,13.7475425 L74.7130939,13.7475425 C74.6562966,13.7475425 74.5926837,13.7521666 74.5222551,13.7197977 C74.5608772,13.5047753 74.5972275,13.287441 74.6358496,13.0770428 C74.7676193,12.3556776 74.8993889,11.6273762 75.0311586,10.9060109 C75.065237,10.7279817 75.065237,10.7279817 75.2379007,10.7279817 L78.2504279,10.7279817 L79.9906963,10.7279817 C80.24742,10.7279817 80.2247011,10.7534145 80.2701389,10.4944628 C80.4473464,9.47021673 80.6381852,8.43903442 80.8176646,7.41478831 C80.8426554,7.2783763 80.8381116,7.27606423 80.7063419,7.27606423 C80.3837334,7.27144009 80.0656687,7.27606423 79.7453321,7.27606423 L75.9012928,7.27606423 C75.6831913,7.27606423 75.6854632,7.27606423 75.7263572,7.0541057 C75.8831177,6.20788882 76.0330625,5.35704781 76.1920948,4.50851887 C76.2443483,4.23107071 76.187551,4.2680638 76.4760812,4.2680638 C78.0777642,4.26343966 79.6794473,4.26343966 81.2788584,4.26343966 C81.32884,4.26343966 81.3788216,4.25881552 81.4265313,4.2680638 C81.5287664,4.27731207 81.5651167,4.22182244 81.5810199,4.12702765 C81.6650799,3.6322451 81.7536836,3.14208669 81.8400155,2.64961622 C81.9717851,1.93056308 82.1012829,1.21150994 82.2307807,0.490144729 C82.2421401,0.43234303 82.2557715,0.367605127 82.2512277,0.305179291 L71.4165803,0.305179291 C71.4143084,0.575691244 71.339336,0.836954925 71.2893544,1.09821861 C71.1462253,1.94905962 70.9826491,2.7952765 70.8281606,3.64842958 C70.6486812,4.64030674 70.4714737,5.63680804 70.2897224,6.6356214 C70.0738928,7.82864847 69.8580632,9.01705141 69.6445054,10.2077664 C69.4809293,11.1094729 69.3150813,12.0042432 69.1560489,12.9036377 C69.1287862,13.049298 69.1242424,13.05161 68.9765695,13.05161 L65.3574474,13.05161 C65.1938713,13.05161 65.1870556,13.0400497 65.2165902,12.880517 C65.4460512,11.6481848 65.6686965,10.4112284 65.8958855,9.17427203 C66.1139871,7.98818116 66.3252729,6.79977823 66.5433744,5.61599942 C66.7728354,4.35823445 67.0045683,3.10740567 67.2317574,1.85426483 C67.3203611,1.38260297 67.4089648,0.906316964 67.4930248,0.434655098 C67.4975686,0.390725806 67.4975686,0.346796515 67.4975686,0.302867224 L61.8451042,0.302867224 C61.577021,1.78721486 61.306666,3.26231423 61.0408548,4.74666187 C60.7886749,6.13159058 60.5387669,7.51189516 60.2911308,8.89682388 C60.0503104,10.2308871 59.8049462,11.5649503 59.5641258,12.8967015 C59.5368631,13.0423618 59.5323193,13.0469859 59.3914621,13.0469859 L55.8632156,13.0469859 C55.6996394,13.0469859 55.6996394,13.0400497 55.7269021,12.8758929 C56.0177042,11.2759418 56.3107781,9.67830285 56.603852,8.08066388 C56.9060135,6.43447149 57.2104469,4.78596702 57.5103364,3.13977463 C57.6716407,2.25887673 57.8329449,1.38260297 57.9897054,0.501705069 C58.0010649,0.439279234 58.0237838,0.365293059 58.0010649,0.298243088 L52.3440567,0.298243088 C52.3326972,0.561818836 52.2622686,0.818458381 52.2191027,1.07278586 C52.0805173,1.8565769 51.9351163,2.63574381 51.7942591,3.41722278 C51.6125078,4.41603615 51.4330284,5.40791331 51.2512772,6.4044146 C51.0627102,7.45640553 50.8718714,8.50839646 50.6833045,9.56038738 C50.4811062,10.6678679 50.2811798,11.7730364 50.0812534,12.880517 C50.0358156,13.1255962 49.9835621,13.3752995 49.9472118,13.6180667 C49.9313086,13.7174856 49.8881427,13.7429183 49.8018108,13.7382942 C49.7654606,13.7336701 49.7291103,13.7382942 49.6904882,13.7382942 C46.9823943,13.7382942 44.2720285,13.7382942 41.5616627,13.7336701 C41.3299299,13.7336701 41.3026672,13.7937838 41.3594645,13.4839667 C41.5162249,12.6215654 41.6661697,11.759164 41.8183864,10.9013868 C41.8501929,10.7187334 41.8501929,10.7187334 42.0455755,10.7187334 L46.7756522,10.7187334 C46.8256338,10.7187334 46.8733435,10.7141093 46.9233251,10.7187334 C47.0051132,10.7256696 47.0460072,10.6933007 47.0596386,10.6077542 C47.2504774,9.51414603 47.44586,8.42978615 47.6389707,7.33849006 C47.6412426,7.33386593 47.6389707,7.32692972 47.6366989,7.31768145 C47.5685421,7.27606423 47.4935697,7.29456077 47.4231411,7.29456077 L42.7112395,7.29456077 C42.4795066,7.29456077 42.4749629,7.29456077 42.5181288,7.06797811 C42.6771611,6.17320781 42.8384654,5.2853737 42.9974978,4.39291547 C43.013401,4.29580861 43.0497512,4.25187932 43.1542582,4.25650346 C43.367816,4.26343966 43.5836456,4.25650346 43.7994752,4.25650346 L48.1433305,4.25650346 C48.1864964,4.25650346 48.2296624,4.25187932 48.2751002,4.26112759 C48.3727915,4.27037586 48.4136855,4.21951037 48.4295888,4.12009145 C48.486386,3.76865711 48.5522709,3.41722278 48.6158838,3.06810052 C48.7703724,2.20107503 48.9271329,1.33636161 49.0793495,0.46702405 C49.0884371,0.411534418 49.0884371,0.356044787 49.0952528,0.300555156 L15.416743,0.300555156 C15.3803927,0.638117079 15.3076922,0.964118664 15.248623,1.29705645 C15.0327934,2.50164387 14.8169638,3.71085541 14.5988623,4.91081869 C14.4080234,5.96974582 14.2194565,7.02867296 14.0308895,8.08528802 C13.876401,8.94306524 13.7196405,9.80546659 13.5651519,10.6632438 C13.5560644,10.7187334 13.542433,10.771911 13.5310736,10.8297127 C13.4720044,10.8320248 13.4720044,10.7834713 13.4606449,10.7580386 C12.7790777,8.85751872 12.0975104,6.95006264 11.4182151,5.04491863 C10.8706894,3.51432964 10.3186199,1.99067684 9.76882232,0.460087846 C9.7506472,0.411534418 9.73928774,0.353732719 9.72338451,0.300555156 L3.8460029,0.300555156 C3.76194294,0.746784274 3.67561109,1.19763753 3.59382302,1.64386665 C3.33028368,3.09353327 3.07128813,4.54551195 2.8054769,5.99055444 C2.53966567,7.45178139 2.27385444,8.90376008 2.00804321,10.362675 C1.75586333,11.756852 1.50595534,13.153341 1.25377545,14.547518 C1.07883986,15.5093383 0.906176155,16.4619103 0.733512451,17.4191064 C0.722152997,17.4769081 0.706249761,17.5323978 0.663083835,17.5693908 C0.665355726,17.6248805 0.640364927,17.7150511 0.756231359,17.6849942 C0.778950268,17.675746 0.803941067,17.6849942 0.831203757,17.6849942 L6.32009203,17.6849942 C6.3019169,17.5878874 6.33145148,17.4977167 6.34735472,17.405234 C6.53592166,16.3231862 6.72221671,15.2388263 6.91078365,14.1590906 C7.11525382,12.9891842 7.32426778,11.8215899 7.52646606,10.6539955 C7.71730489,9.55113911 7.90587183,8.45984303 8.09443877,7.36392281 C8.12397336,7.20439012 8.15350794,7.0471695 8.17849874,6.88763681 C8.23983979,6.88301267 8.2375679,6.92925403 8.24665546,6.96162298 C8.49883534,7.69917267 8.75101523,8.44134649 9.00092322,9.18120824 C9.61660564,10.9915575 10.2322881,12.8065308 10.8479705,14.6238162 C11.1683071,15.5717641 11.4886437,16.5150878 11.8089803,17.4653478 C11.8316992,17.5347098 11.8680495,17.608696 11.8635057,17.6849942 L31.9742834,17.6849942 C31.9879147,17.4144823 32.0583434,17.1532186 32.1037812,16.8873308 C32.3037076,15.7613537 32.5104496,14.6353766 32.7149198,13.5093995 C32.9171181,12.3996069 33.1215883,11.280566 33.3237866,10.1730854 C33.5032659,9.19045651 33.6804734,8.20320349 33.8576809,7.22288666 C34.0280727,6.28649914 34.2007364,5.35242368 34.3688563,4.41834821 C34.396119,4.26575173 34.3847596,4.25881552 34.5551514,4.25881552 L37.3268582,4.25881552 C37.351849,4.25881552 37.3745679,4.26343966 37.3995587,4.26343966 C37.4745311,4.25419139 37.4995219,4.29580861 37.4904344,4.36285858 C37.4608998,4.54319988 37.4336371,4.72354119 37.3995587,4.90157042 C37.1314756,6.37666979 36.8633925,7.85176915 36.5953094,9.32686852 C36.3294981,10.7765351 36.0659588,12.2308259 35.8024195,13.6804925 C35.6206682,14.6723697 35.4434607,15.6573106 35.2662532,16.6514999 C35.2026403,16.9936859 35.1435711,17.338184 35.0822301,17.6849942 L87.8718856,17.6849942 C87.8832451,17.4191064 87.9514018,17.1647789 87.9968396,16.9035153 C88.1467844,16.0411139 88.3080887,15.1717764 88.4625773,14.3047509 C88.6806788,13.1094117 88.8919646,11.9233209 89.112338,10.7279817 C89.1941261,10.2655681 89.2781861,9.80546659 89.3577022,9.343053 C89.4213152,9.34767713 89.4144995,9.40085469 89.4235871,9.44247192 C89.8052647,10.7418541 90.1869424,12.0435484 90.5663482,13.3452427 C90.9821042,14.7648524 91.3978602,16.1867742 91.8113444,17.608696 C91.8158881,17.6318167 91.8204319,17.6572494 91.8249757,17.6826822 L97.4479055,17.6826822 C97.250251,17.1439703 97.0571403,16.5983223 96.8526701,16.0642346 C96.2279001,14.3625526 95.6008583,12.6654947 94.9738164,10.9707488 C94.8965721,10.7672869 94.898844,10.7626627 95.1101299,10.7233576 C95.6326647,10.6146904 96.1529278,10.4829025 96.6459281,10.2655681 C97.999975,9.65518217 98.8837405,8.62862399 99.2994966,7.18126944 C99.4426257,6.67723862 99.5085105,6.15471126 99.5266856,5.61831149 L99.5266856,5.61831149 Z M105.46768,14.7972213 C105.410883,14.6885541 105.429058,14.5637025 105.399523,14.4527232 C105.045109,13.1926462 103.829647,12.3857344 102.516494,12.6238774 C101.203341,12.8620204 100.283225,14.1220975 100.474064,15.4769693 C100.621737,16.519712 101.203341,17.2087082 102.166623,17.5809512 C102.282489,17.6271925 102.405171,17.6295046 102.51195,17.6965546 L103.40026,17.6965546 C103.597914,17.6179443 103.813744,17.5832632 104.009126,17.4884685 C104.740675,17.1347221 105.210957,16.5659533 105.417699,15.7659778 C105.442689,15.668871 105.417699,15.5625158 105.46768,15.4723452 C105.46768,15.2480746 105.46768,15.023804 105.46768,14.7972213 L105.46768,14.7972213 Z M28.6187006,4.2680638 L28.486931,4.2680638 L25.8992473,4.2680638 L20.4467093,4.2680638 C20.2513267,4.2680638 20.2513267,4.27268793 20.2172483,4.46690164 C20.0695754,5.32467886 19.9241744,6.18245608 19.7787734,7.03560916 C19.7401512,7.26450389 19.7401512,7.26450389 19.974156,7.26450389 L24.7792051,7.26450389 L24.926878,7.26450389 C25.0472882,7.27144009 25.0495601,7.27144009 25.031385,7.39166763 C25.0200255,7.47490207 25.0041223,7.55120032 24.990491,7.6321227 C24.822371,8.58007056 24.656523,9.52801843 24.4861312,10.4736542 C24.4384215,10.7279817 24.4361496,10.7279817 24.1885135,10.7279817 L19.2539666,10.7279817 C19.0653996,10.7279817 19.0676715,10.7279817 19.0358651,10.9129471 C18.9904272,11.1580264 18.9449894,11.4054176 18.8995516,11.6504968 C18.7768695,12.337181 18.6519155,13.0284893 18.5269615,13.7221097 C18.5883026,13.7544787 18.6382842,13.7498546 18.6882658,13.7498546 L26.8943355,13.7498546 C27.0647273,13.7498546 27.0647273,13.7452304 27.0942619,13.5787615 C27.2555661,12.6724309 27.4191423,11.7730364 27.5804465,10.8643937 C27.7621978,9.87482863 27.943949,8.88988767 28.1211565,7.89801051 C28.2801889,7.02404882 28.4392213,6.14777506 28.5937098,5.2784375 C28.6436914,4.99405314 28.6982168,4.70966878 28.7436546,4.42759649 C28.7800049,4.2819362 28.7709173,4.27268793 28.6187006,4.2680638 L28.6187006,4.2680638 Z M92.9154833,4.13858799 C92.567884,3.99292771 92.2043815,3.91894153 91.8272476,3.88194844 C91.4364824,3.84033122 91.0434453,3.84495536 90.6504081,3.84495536 C90.3641499,3.84495536 90.3641499,3.84495536 90.3141683,4.13396385 C90.1278732,5.14664963 89.946122,6.1593354 89.7598269,7.17202117 C89.6939421,7.54657618 89.6212416,7.92344326 89.5553568,8.29799827 C89.5190065,8.48296371 89.5190065,8.48296371 89.7098453,8.48296371 L90.466385,8.48296371 C90.8094405,8.48296371 91.1570398,8.49221198 91.4955515,8.44134649 C91.9203951,8.39279306 92.3338792,8.29799827 92.7223726,8.11765697 C93.2449075,7.86564156 93.6265851,7.48415035 93.8492304,6.9315661 C93.9900877,6.5708835 94.0264379,6.19401642 94.0173504,5.80790107 C94.0105347,5.06110311 93.5970506,4.43222062 92.9154833,4.13858799 L92.9154833,4.13858799 Z M105.031477,15.1417195 C105.076915,16.2307035 104.118177,17.2595737 102.961785,17.2549496 C101.943978,17.2503255 100.90118,16.4133569 100.894364,15.1463436 C100.892092,13.9764372 101.812208,13.0354255 102.973144,13.0377376 C104.163615,13.0377376 105.067827,14.0666079 105.031477,15.1417195 L105.031477,15.1417195 Z M104.415795,16.4295413 C104.111361,16.0226174 103.888716,15.5740762 103.461601,15.261947 C103.529757,15.2318901 103.586555,15.2226418 103.636536,15.2064574 C104.140896,15.0122437 104.272666,14.3625526 103.89326,13.9741251 C103.750131,13.8261528 103.566108,13.7799114 103.372997,13.7799114 C102.966328,13.766039 102.564204,13.8122804 102.157535,13.8261528 C101.903083,13.8377131 101.903083,13.8377131 101.916715,14.1012889 C101.916715,14.1267216 101.921259,14.1498423 101.92353,14.172963 C101.946249,14.5891352 101.968968,14.9937471 101.987143,15.4052952 C102.003047,15.7266727 102.012134,16.045738 102.030309,16.3624914 C102.039397,16.589074 102.043941,16.5844499 102.262042,16.5752016 C102.416531,16.5705775 102.411987,16.5520809 102.407443,16.4133569 C102.396084,16.1520932 102.380181,15.8885174 102.373365,15.6272537 C102.371093,15.5486434 102.325655,15.4538486 102.377909,15.3867987 C102.42789,15.3197487 102.525582,15.3659901 102.60737,15.3474935 C102.923162,15.2758194 103.166255,15.3752383 103.361637,15.6434382 C103.538845,15.8838933 103.704693,16.1289725 103.8819,16.3694276 C103.913707,16.4156689 103.936426,16.4780948 104.000039,16.4780948 C104.127265,16.4780948 104.263578,16.5173999 104.415795,16.4295413 L104.415795,16.4295413 Z" id="netller"></path>
                    </g>
                </g>
            </g>
        </g>
    </g>
</svg>