<?xml version="1.0" encoding="UTF-8"?>
<svg width="70px" height="23px" viewBox="0 0 70 23" version="1.1" xmlns="http://www.w3.org/2000/svg" xmlns:xlink="http://www.w3.org/1999/xlink">
    <!-- Generator: Sketch 45 (43475) - http://www.bohemiancoding.com/sketch -->
    <title>visa</title>
    <desc>Created with Sketch.</desc>
    <defs></defs>
    <g id="Page-1" stroke="none" stroke-width="1" fill="none" fill-rule="evenodd">
        <g id="Desktop-(cartoon)" transform="translate(-480.000000, -3385.000000)" fill="#344846">
            <g id="logos" transform="translate(174.000000, 3381.000000)">
                <g id="pay-methods">
                    <g id="visa" transform="translate(306.000000, 4.000000)">
                        <g transform="translate(0.139330, 0.512717)" id="Capa_1">
                            <g>
                                <g id="Group">
                                    <path d="M48.87593,22.1156183 C48.9948032,22.3049424 49.1973596,22.4187596 49.4153654,22.4187596 L54.0340395,22.4187596 C54.3013969,22.4187596 54.5410744,22.2470315 54.63613,21.9875461 C55.203889,20.4330837 55.5680186,19.4425845 55.6881792,19.1227381 C55.9948034,19.1227381 57.4133425,19.12452 58.9342328,19.12697 L59.0200618,19.12697 C60.7679698,19.1291974 62.6248806,19.1316475 63.0692603,19.1316475 L63.0692603,19.1316475 C63.2003642,19.7140975 63.5254416,21.256755 63.6595494,21.8926613 C63.7241358,22.1998118 63.9859143,22.4183141 64.2884616,22.4183141 L68.3162029,22.4183141 C68.5112493,22.4183141 68.6959963,22.3265476 68.8180881,22.168629 C68.9399653,22.0107104 68.9865275,21.8037903 68.9449004,21.6064478 L64.5646164,1.00842934 C64.4993864,0.702169739 64.2382516,0.484112903 63.9359189,0.484112903 L60.001302,0.484112903 C58.427627,0.484112903 57.5247057,1.02869816 56.9824809,2.3047427 L48.8263637,21.4801575 C48.738389,21.687523 48.7572713,21.9260714 48.87593,22.1156183 L48.87593,22.1156183 Z M60.4111356,6.40104839 L60.8005848,8.29696237 L62.1345823,14.6308564 L57.3470396,14.6308564 L57.3466105,14.6308564 L60.4111356,6.40104839 L60.4111356,6.40104839 Z" id="Shape"></path>
                                    <path d="M33.1986158,21.4106644 C34.7184332,21.9639363 36.8407703,22.3080607 38.8753472,22.3307796 L38.8822135,22.3307796 C44.716012,22.3294432 48.5124441,19.4913633 48.5540711,15.1001575 C48.5763867,12.6857181 47.0926175,10.8597427 43.9025674,9.3616321 C41.9497427,8.37692396 40.7535007,7.72297619 40.7648731,6.72156298 C40.7648731,5.82127112 41.8587639,4.91006528 43.960502,4.90984255 C44.0111411,4.90895161 44.0712215,4.90850614 44.1300143,4.90850614 C45.8753474,4.90850614 47.1080667,5.31922811 47.8833174,5.62816052 C48.0635583,5.69988095 48.2648273,5.68406682 48.4328376,5.58495008 C48.6006334,5.48583333 48.716288,5.31388249 48.748903,5.1163172 L49.2698852,1.93634025 C49.3235283,1.60825269 49.1366356,1.28929724 48.8312989,1.18795315 C47.873447,0.869888633 46.3246624,0.490794931 44.3847119,0.490794931 C38.8860758,0.490794931 35.0244137,3.36228495 34.9937298,7.47106375 C34.958969,10.5136137 37.7546348,12.2110714 39.8619518,13.2233986 C42.023341,14.258222 42.7494546,14.9204109 42.7395842,15.8474309 C42.7243496,17.2666935 41.0069109,17.9128456 39.4173574,17.9128456 C37.1551191,17.9128456 35.9359178,17.5586982 34.2111837,16.8140975 C34.0305136,16.7359178 33.8249531,16.7477227 33.6532951,16.8461713 C33.4818516,16.9439516 33.3627638,17.1181298 33.3295051,17.3185906 L32.7774099,20.6669547 C32.7241959,20.9885829 32.9022912,21.302861 33.1986158,21.4106644 L33.1986158,21.4106644 Z" id="Shape"></path>
                                    <path d="M0.956086387,1.71895161 C4.64351564,3.09656298 7.65976195,5.28247696 9.67888964,8.04059524 C9.80377086,8.21120968 9.99538414,8.30453533 10.191718,8.30453533 C10.2820531,8.30453533 10.3732464,8.28493472 10.45929,8.24417435 C10.7330846,8.11409754 10.8837145,7.80405146 10.8214885,7.49823733 L9.74841114,2.23168587 C9.74605084,2.22032642 9.74347597,2.20918971 9.74068653,2.198053 C9.35488509,0.693928571 8.13332357,0.470303379 7.24799723,0.433106759 C7.2396289,0.432884025 7.23126057,0.43266129 7.22289224,0.43266129 L1.17516496,0.422415515 L1.1740921,0.422415515 C0.861459893,0.422415515 0.594102497,0.65561828 0.540030215,0.975241935 C0.485957933,1.29486559 0.661478278,1.60892089 0.956086387,1.71895161 L0.956086387,1.71895161 Z" id="Shape"></path>
                                    <path d="M23.2802144,22.1724155 C23.4025207,22.3229839 23.5825471,22.4096275 23.7722292,22.4096275 L28.2280427,22.4096275 C28.5417478,22.4096275 28.8099635,22.1748656 28.8625338,21.8536828 L32.2484886,1.24252304 C32.2804599,1.04852151 32.2283188,0.849619816 32.1060124,0.699274194 C31.9837061,0.548928571 31.8038943,0.462062212 31.6142121,0.462062212 L27.15518,0.462062212 C26.8412604,0.462062212 26.5732593,0.697046851 26.520689,1.01800691 L23.1377382,21.6291667 C23.1059814,21.8233909 23.1581226,22.0225154 23.2802144,22.1724155 L23.2802144,22.1724155 Z" id="Shape"></path>
                                    <path d="M5.47734456,5.20852919 C5.25612026,5.03212366 4.95121267,5.02365975 4.72162004,5.18692396 C4.49181284,5.35018817 4.38903259,5.64842934 4.46735157,5.92595622 L8.97509168,21.9131528 C9.05534181,22.19803 9.30703541,22.3938134 9.59284604,22.3938134 L9.59348976,22.3938134 L14.7846434,22.3860177 C15.0414868,22.3860177 15.2736543,22.2267627 15.3751471,21.9819777 L23.8960376,1.41224654 C23.9814374,1.20577189 23.9614822,0.968337174 23.8421799,0.780794931 C23.7230921,0.593029954 23.5211793,0.480103687 23.3046756,0.480103687 L23.3042465,0.480103687 L18.6169091,0.482553763 C18.3523412,0.482553763 18.1143802,0.651163594 18.0178226,0.907085253 L12.533992,15.4489593 L11.944132,13.2327535 C11.9364074,13.2033525 11.9265371,13.1743971 11.9147356,13.1463326 C11.0491499,11.0608717 8.72296893,7.79759217 5.47734456,5.20852919 L5.47734456,5.20852919 Z" id="Shape"></path>
                                </g>
                            </g>
                        </g>
                    </g>
                </g>
            </g>
        </g>
    </g>
</svg>