{
  "selection": [
    {
      "order": 17,
      "name": "google-plus",
      "prevSize": 32
    },
    {
      "order": 18,
      "name": "share",
      "prevSize": 32
    },
    {
      "order": 19,
      "name": "share-facebook",
      "prevSize": 32
    },
    {
      "order": 20,
      "name": "share-twitter",
      "prevSize": 32
    }
  ],
  "metadata": {
    "name": "RadIcons",
    "importSize": {
      "width": 512,
      "height": 512
    },
    "iconsHash": 796061029
  },
  "height": 1024,
  "prevSize": 32,
  "icons": [
    {
      "paths": [
        "M896 448v-128h-64v128h-128v64h128v128h64v-128h128v-64z",
        "M320 448v128h181.056c-26.432 74.496-97.6 128-181.056 128-105.856 0-192-86.144-192-192s86.144-192 192-192c45.888 0 90.048 16.448 124.352 46.336l84.096-96.512c-57.6-50.176-131.584-77.824-208.448-77.824-176.448 0-320 143.552-320 320s143.552 320 320 320 320-143.552 320-320v-64h-320z"
      ],
      "grid": 0,
      "tags": [
        "google-plus"
      ],
      "defaultCode": 59650
    },
    {
      "paths": [
        "M832.958 650.817c-59.284 0-111.576 28.244-145.74 71.496l-316.881-162.053c4.148-15.472 7.13-31.459 7.13-48.284 0-18.316-3.541-35.56-8.483-52.34l315.483-161.305c33.976 45.209 87.621 74.758 148.536 74.758 103.188 0 186.66-83.472 186.66-186.568 0.002-103.002-83.472-186.522-186.658-186.522-102.955 0-186.52 83.52-186.52 186.52 0 16.872 2.984 32.905 7.178 48.424l-316.835 162.053c-34.21-43.297-86.597-71.634-145.973-71.634-103.095 0-186.52 83.565-186.52 186.613s83.427 186.568 186.52 186.568c61.008 0 114.607-29.642 148.722-74.897l315.342 161.305c-4.941 16.732-8.528 34.117-8.528 52.48 0 103.048 83.565 186.568 186.52 186.568 103.188 0 186.66-83.52 186.66-186.568 0.048-103.141-83.425-186.615-186.613-186.615z"
      ],
      "grid": 0,
      "tags": [
        "share"
      ],
      "defaultCode": 59648
    },
    {
      "paths": [
        "M446.44 142.454c32.132-30.596 77.836-40.93 120.95-42.218 45.598-0.41 91.178-0.162 136.776-0.144 0.18 48.102 0.196 96.222-0.018 144.322-29.468-0.052-58.956 0.072-88.424-0.052-18.686-1.164-37.874 13-41.27 31.524-0.448 32.186-0.162 64.39-0.144 96.578 43.22 0.178 86.44-0.054 129.658 0.108-3.164 46.562-8.94 92.912-15.716 139.082-38.176 0.358-76.374-0.036-114.548 0.198-0.34 137.33 0.178 274.66-0.268 411.99-56.704 0.232-113.442-0.108-170.144 0.16-1.074-137.348 0.088-274.766-0.59-412.132-27.664-0.288-55.344 0.198-83.006-0.232 0.106-46.17 0.036-92.338 0.052-138.492 27.644-0.338 55.308 0.072 82.954-0.196 0.84-44.884-0.842-89.82 0.876-134.666 2.772-35.516 16.308-71.298 42.862-95.83z"
      ],
      "grid": 0,
      "tags": [
        "share-facebook"
      ],
      "defaultCode": 59649
    },
    {
      "paths": [
        "M1024 194.523c-37.689 16.7-78.129 28.026-120.618 33.083 43.384-25.98 76.594-67.187 92.334-116.139-40.696 24.059-85.616 41.529-133.48 50.999-38.328-40.888-92.846-66.356-153.316-66.356-116.010 0-210.072 94.062-210.072 210.009 0 16.444 1.856 32.505 5.44 47.864-174.559-8.768-329.345-92.399-432.941-219.481-18.109 30.971-28.411 67.059-28.411 105.581 0 72.883 37.113 137.191 93.423 174.815-34.426-1.151-66.804-10.621-95.15-26.363v2.624c0 101.741 72.435 186.652 168.48 205.978-17.597 4.735-36.153 7.359-55.35 7.359-13.565 0-26.683-1.344-39.544-3.904 26.746 83.505 104.301 144.228 196.188 145.893-71.859 56.31-162.466 89.776-260.879 89.776-16.956 0-33.658-1.024-50.102-2.88 92.975 59.702 203.354 94.511 321.988 94.511 386.423 0 597.648-320.069 597.648-597.648l-0.704-27.195c41.271-29.437 76.976-66.421 105.067-108.526z"
      ],
      "grid": 0,
      "tags": [
        "share-twitter"
      ],
      "defaultCode": 59651
    }
  ],
  "colorThemes": [],
  "preferences": {
    "showGlyphs": true,
    "showQuickUse": true,
    "showQuickUse2": true,
    "showSVGs": true,
    "fontPref": {
      "prefix": "icon-",
      "metadata": {
        "fontFamily": "rad-icons",
        "majorVersion": 1,
        "minorVersion": 0
      },
      "metrics": {
        "emSize": 1024,
        "baseline": 6.25,
        "whitespace": 50
      },
      "embed": false,
      "showSelector": false,
      "cssVars": true,
      "cssVarsFormat": "scss"
    },
    "imagePref": {
      "prefix": "icon-",
      "png": true,
      "useClassSelector": true,
      "color": 0,
      "bgColor": 16777215,
      "classSelector": ".icon"
    },
    "historySize": 50,
    "showCodes": true,
    "gridSize": 16
  },
  "IcoMoonType": "icon-set"
}